<svg width="43" height="45" viewBox="0 0 43 45" fill="none" xmlns="http://www.w3.org/2000/svg">
<path d="M43 44.2383V38.0941C43 34.0217 39.6993 30.7211 35.6269 30.7211H15.9655C11.8943 30.7211 8.59241 34.0217 8.59241 38.0941V44.2383H43Z" fill="#77B255"/>
<path d="M20.4385 30.8513C20.4385 31.9499 23.3385 33.3004 25.7962 33.3004C28.2539 33.3004 31.1527 31.9499 31.1527 30.8525V26.162H20.4372V30.8513H20.4385Z" fill="#F7DECE"/>
<path d="M20.4286 28.2302C21.9229 29.9186 23.776 30.3758 25.7913 30.3758C27.8054 30.3758 29.6572 29.9174 31.1527 28.2302V23.9403H20.4274V28.2302H20.4286Z" fill="#EEC2AD"/>
<path d="M17.7399 15.8963C17.7399 17.6757 16.838 19.1183 15.7259 19.1183C14.6138 19.1183 13.7118 17.6757 13.7118 15.8963C13.7118 14.1169 14.6138 12.673 15.7259 12.673C16.838 12.6718 17.7399 14.1157 17.7399 15.8963ZM37.8794 15.8963C37.8794 17.6757 36.9787 19.1183 35.8654 19.1183C34.7533 19.1183 33.8513 17.6757 33.8513 15.8963C33.8513 14.1169 34.752 12.673 35.8654 12.673C36.9787 12.6718 37.8794 14.1157 37.8794 15.8963Z" fill="#F7DECE"/>
<path d="M15.3228 17.1546C15.3228 10.2866 20.012 4.71753 25.7962 4.71753C31.5804 4.71753 36.2684 10.2866 36.2684 17.1546C36.2684 24.0226 31.5804 29.5917 25.7962 29.5917C20.0133 29.5905 15.3228 24.0226 15.3228 17.1546Z" fill="#F7DECE"/>
<path d="M25.7962 25.5624C22.412 25.5624 21.3724 24.696 21.1991 24.5203C20.8845 24.2057 20.8845 23.6958 21.1991 23.3812C21.5039 23.0764 21.9929 23.0678 22.3075 23.3529C22.3714 23.3984 23.1935 23.9514 25.7962 23.9514C28.4997 23.9514 29.2812 23.3554 29.2886 23.3492C29.6032 23.0359 30.0959 23.0506 30.4105 23.3677C30.7251 23.6823 30.7079 24.207 30.3933 24.5203C30.22 24.696 29.1804 25.5624 25.7962 25.5624Z" fill="#C1694F"/>
<path d="M25.7962 0C32.7367 0 37.0745 5.71166 37.0745 9.97943C37.0745 14.2472 36.207 15.9553 35.3394 14.2472L33.6043 10.8335C33.6043 10.8335 28.4001 10.8335 26.665 9.12538C26.665 9.12538 29.2677 14.2472 24.0623 9.12538C24.0623 9.12538 24.9299 12.5403 19.7245 8.27256C19.7245 8.27256 17.1218 9.97943 16.2543 14.2472C16.0134 15.4318 14.5191 14.2472 14.5191 9.97943C14.5179 5.71166 17.9882 0 25.7962 0Z" fill="#292F33"/>
<path d="M20.8808 17.2038C20.205 17.2038 19.652 16.6508 19.652 15.975V14.7461C19.652 14.0703 20.205 13.5173 20.8808 13.5173C21.5567 13.5173 22.1097 14.0703 22.1097 14.7461V15.975C22.1097 16.6508 21.5567 17.2038 20.8808 17.2038ZM30.7116 17.2038C30.0357 17.2038 29.4827 16.6508 29.4827 15.975V14.7461C29.4827 14.0703 30.0357 13.5173 30.7116 13.5173C31.3874 13.5173 31.9404 14.0703 31.9404 14.7461V15.975C31.9404 16.6508 31.3874 17.2038 30.7116 17.2038Z" fill="#662113"/>
<path d="M26.7178 20.5831H24.8746C24.3671 20.5831 23.9529 20.169 23.9529 19.6615C23.9529 19.154 24.3671 18.7399 24.8746 18.7399H26.7178C27.2253 18.7399 27.6395 19.154 27.6395 19.6615C27.6395 20.169 27.2253 20.5831 26.7178 20.5831Z" fill="#C1694F"/>
<path d="M40.5423 43.0095C40.5423 43.689 39.993 44.2383 39.3135 44.2383H27.025C26.3455 44.2383 25.7962 43.689 25.7962 43.0095C25.7962 42.3299 26.3455 41.7806 27.025 41.7806H39.3135C39.993 41.7806 40.5423 42.3299 40.5423 43.0095Z" fill="#E1E8ED"/>
<path d="M24.8623 27.0345H4.60976C2.737 27.0345 0.335843 27.982 1.56468 31.3736L5.33969 41.788C5.34092 41.788 5.82754 44.2383 8.59243 44.2383H33.1693L28.2539 30.4261C27.7157 28.8016 26.7363 27.0345 24.8623 27.0345Z" fill="#E1E8ED"/>
<path d="M23.6334 27.0345H3.3809C1.50815 27.0345 -0.893008 27.982 0.335834 31.3736L4.11084 41.788C4.11206 41.788 4.59869 44.2383 7.36358 44.2383H31.9404L27.0251 30.4261C26.4868 28.8016 25.5074 27.0345 23.6334 27.0345Z" fill="#99AAB5"/>
<path d="M17.2176 35.9842C17.8616 37.9159 17.3393 39.8304 16.0515 40.2593C14.7636 40.6894 13.1981 39.4716 12.5542 37.5399C11.9103 35.6081 12.4325 33.6936 13.7204 33.2647C15.0082 32.8359 16.575 34.0524 17.2176 35.9842ZM23.3385 30.4138H3.67703C3.16829 30.4138 2.7554 30.0009 2.7554 29.4922C2.7554 28.9834 3.16829 28.5706 3.67703 28.5706H23.3385C23.8472 28.5706 24.2601 28.9834 24.2601 29.4922C24.2601 30.0009 23.8472 30.4138 23.3385 30.4138Z" fill="#E1E8ED"/>
</svg>
